[gd_scene load_steps=3 format=2]

[ext_resource path="res://ui/MapUI/MapWaypoint/waypoint_transparent.png" type="Texture" id=1]
[ext_resource path="res://ui/MapUI/MapWaypoint/MapWaypoint.gd" type="Script" id=2]

[node name="MapWaypoint" type="Node2D"]
script = ExtResource( 2 )

[node name="TextureRect" type="TextureRect" parent="."]
margin_left = -4.0
margin_top = -4.0
margin_right = 4.0
margin_bottom = 4.0
texture = ExtResource( 1 )
__meta__ = {
"_edit_use_anchors_": false
}
