[gd_scene load_steps=4 format=2]

[ext_resource path="res://music/GSP-Melanchol-Theme.wav" type="AudioStream" id=1]
[ext_resource path="res://music/MusicPlayer.gd" type="Script" id=2]

[sub_resource type="Animation" id=1]
resource_name = "fade_out"
length = 15.0
tracks/0/type = "value"
tracks/0/path = NodePath(".:volume_db")
tracks/0/interp = 1
tracks/0/loop_wrap = true
tracks/0/imported = false
tracks/0/enabled = true
tracks/0/keys = {
"times": PoolRealArray( 0, 15 ),
"transitions": PoolRealArray( 1, 1 ),
"update": 0,
"values": [ 0.0, -50.0 ]
}

[node name="MusicPlayer" type="AudioStreamPlayer"]
stream = ExtResource( 1 )
bus = "Music"
script = ExtResource( 2 )

[node name="AnimationPlayer" type="AnimationPlayer" parent="."]
anims/fade_out = SubResource( 1 )
