[gd_scene load_steps=5 format=2]

[ext_resource path="res://ui/TitleRichTextLabel/TitleRichTextLabel.gd" type="Script" id=1]
[ext_resource path="res://ui/alagard.tres" type="DynamicFont" id=2]

[sub_resource type="Animation" id=1]
resource_name = "fade_in"
length = 2.0
tracks/0/type = "value"
tracks/0/path = NodePath(".:modulate")
tracks/0/interp = 1
tracks/0/loop_wrap = true
tracks/0/imported = false
tracks/0/enabled = true
tracks/0/keys = {
"times": PoolRealArray( 0, 2 ),
"transitions": PoolRealArray( 1, 1 ),
"update": 0,
"values": [ Color( 1, 1, 1, 0 ), Color( 1, 1, 1, 1 ) ]
}

[sub_resource type="Animation" id=2]
resource_name = "fade_out"
length = 2.0
tracks/0/type = "value"
tracks/0/path = NodePath(".:modulate")
tracks/0/interp = 1
tracks/0/loop_wrap = true
tracks/0/imported = false
tracks/0/enabled = true
tracks/0/keys = {
"times": PoolRealArray( 0, 2 ),
"transitions": PoolRealArray( 1, 1 ),
"update": 0,
"values": [ Color( 1, 1, 1, 1 ), Color( 1, 1, 1, 0 ) ]
}

[node name="TitleRichTextLabel" type="RichTextLabel"]
margin_left = 140.0
margin_top = 20.0
margin_right = 233.0
margin_bottom = 73.0
custom_fonts/normal_font = ExtResource( 2 )
bbcode_enabled = true
bbcode_text = "Good, 
Occasionally
Poor"
text = "Good, 
Occasionally
Poor"
script = ExtResource( 1 )
__meta__ = {
"_edit_use_anchors_": false
}

[node name="AnimationPlayer" type="AnimationPlayer" parent="."]
anims/fade_in = SubResource( 1 )
anims/fade_out = SubResource( 2 )
